module tim-siemers.de/nextcloud-bootstrap

go 1.17

require (
	github.com/bsm/redislock v0.7.1 // indirect
	github.com/cespare/xxhash/v2 v2.1.2 // indirect
	github.com/dgryski/go-rendezvous v0.0.0-20200823014737-9f7001d12a5f // indirect
	github.com/go-redis/redis/v8 v8.11.4 // indirect
)
